◆◆◆───────◆◆◆───────◆◆◆


◆◆◆───────◆◆◆───────◆◆◆


◆◆◆───────◆◆◆───────◆◆◆


◆◆◆───────◆◆◆───────◆◆◆


◆◆◆───────◆◆◆───────◆◆◆


◆◆◆───────◆◆◆───────◆◆◆


◆◆◆───────◆◆◆───────◆◆◆


◆◆◆───────◆◆◆───────◆◆◆


◆◆◆───────◆◆◆───────◆◆◆


◆◆◆───────◆◆◆───────◆◆◆


◆◆◆───────◆◆◆───────◆◆◆


◆◆◆───────◆◆◆───────◆◆◆


◆◆◆───────◆◆◆───────◆◆◆


◆◆◆───────◆◆◆───────◆◆◆


◆◆◆───────◆◆◆───────◆◆◆


◆◆◆───────◆◆◆───────◆◆◆


◆◆◆───────◆◆◆───────◆◆◆


◆◆◆───────◆◆◆───────◆◆◆

「─────嗚⋯⋯」

伴隨著輕微的頭痛，我醒了過來。
在床上坐起上半身，像是驅趕疼痛一樣地搖了搖頭。

「⋯⋯？」

總感覺好像做了個奇怪的夢⋯⋯⋯
⋯⋯⋯⋯⋯⋯⋯⋯⋯⋯⋯⋯⋯
夢⋯⋯？
真的嗎⋯⋯？

意識漸漸清晰起來。
同時記憶也變得鮮明了。

一直在黑暗的世界行走的事情。
經歷了數個記憶的事情。
在白色的世界和某人相遇的事情。
在星空的世界和『她』對峙的事情。

我記得很清楚。

不是夢。

「───！！」

我從床上飛身而起，跑到窗邊。
這裡似乎是旅店的二樓。
把木窗推上去，將頭探向外面。
然後，在藍天中央。
仰望中天。

「⋯⋯⋯⋯啊啊⋯⋯⋯⋯」

這之後就要開始了。
終於能開始了。

為了把傑克。
從那個女孩手中。
救出來的───

───真正的戰鬥。

「距離淨化的太陽爆炸、還有約１・９・５・小・時。」

TO BE CONTINUED TO
因果的魔王期・第２回：無論你有多骯髒